Monta Verde Succession
…
mat_key <-   comm_dat %>% 
  spread(species, m_abund, fill=0) %>% 
  column_to_rownames(var="transect")

#Get most common species in each habitat

abund_top <- comm_dat %>% 
  group_by(year_planted, species) %>%
  summarize(tot_m_abund = mean(m_abund),
            .groups = "keep") %>% 
  group_by(year_planted) %>% 
  top_n(3, wt = tot_m_abund)
abund_top

## # A tibble: 21 x 3
## # Groups:   year_planted [5]
##    year_planted species tot_m_abund
##    <fct>        <chr>         <dbl>
##  1 0            BLVU              4
##  2 0            BRJA              3
##  3 0            BTSA              3
##  4 0            EAME              3
##  5 0            WTMJ              3
##  6 0            YFGR              3
##  7 2011         CAWA              2
##  8 2011         OLWO              2
##  9 2011         RCWA              2
## 10 2011         SWTH              3
## # ... with 11 more rows
…
